{
    "asset" : {
        "generator" : "Khronos glTF Blender I/O v1.4.40",
        "version" : "2.0"
    },
    "scene" : 0,
    "scenes" : [
        {
            "name" : "Scene",
            "nodes" : [
                1,
                2,
                3
            ]
        }
    ],
    "nodes" : [
        {
            "mesh" : 0,
            "name" : "leaves"
        },
        {
            "children" : [
                0
            ],
            "mesh" : 1,
            "name" : "tree",
            "scale" : [
                0.25,
                0.25,
                0.25
            ]
        },
        {
            "camera" : 0,
            "name" : "Camera",
            "rotation" : [
                -0.0772733986377716,
                0.37644627690315247,
                0.9043537974357605,
                -0.18563739955425262
            ],
            "translation" : [
                -17.820058822631836,
                42.515541076660156,
                65.35317993164062
            ]
        },
        {
            "name" : "Sun",
            "rotation" : [
                0.26672929525375366,
                -0.13885048031806946,
                -0.44037747383117676,
                0.8459572792053223
            ],
            "translation" : [
                -16.55751609802246,
                -11.593697547912598,
                20.10260009765625
            ]
        }
    ],
    "cameras" : [
        {
            "name" : "Camera",
            "perspective" : {
                "aspectRatio" : 1.7777777777777777,
                "yfov" : 0.39959652046304894,
                "zfar" : 100,
                "znear" : 0.10000000149011612
            },
            "type" : "perspective"
        }
    ],
    "materials" : [
        {
            "doubleSided" : true,
            "name" : "Material.001",
            "pbrMetallicRoughness" : {
                "baseColorFactor" : [
                    0.041258350014686584,
                    0.18406514823436737,
                    0.02995404414832592,
                    1
                ],
                "metallicFactor" : 0,
                "roughnessFactor" : 0.8014184236526489
            }
        },
        {
            "doubleSided" : true,
            "name" : "Material.002",
            "pbrMetallicRoughness" : {
                "baseColorFactor" : [
                    0.05572385713458061,
                    0.03439696505665779,
                    0.025506407022476196,
                    1
                ],
                "metallicFactor" : 0
            }
        }
    ],
    "meshes" : [
        {
            "name" : "leaves.004",
            "primitives" : [
                {
                    "attributes" : {
                        "POSITION" : 0,
                        "NORMAL" : 1,
                        "TEXCOORD_0" : 2
                    },
                    "indices" : 3,
                    "material" : 0
                }
            ]
        },
        {
            "name" : "tree.004",
            "primitives" : [
                {
                    "attributes" : {
                        "POSITION" : 4,
                        "NORMAL" : 5,
                        "TEXCOORD_0" : 6
                    },
                    "indices" : 7,
                    "material" : 1
                }
            ]
        }
    ],
    "accessors" : [
        {
            "bufferView" : 0,
            "componentType" : 5126,
            "count" : 29196,
            "max" : [
                6.289785861968994,
                7.5315470695495605,
                18.809356689453125
            ],
            "min" : [
                -7.028076171875,
                -8.175923347473145,
                1.2014180421829224
            ],
            "type" : "VEC3"
        },
        {
            "bufferView" : 1,
            "componentType" : 5126,
            "count" : 29196,
            "type" : "VEC3"
        },
        {
            "bufferView" : 2,
            "componentType" : 5126,
            "count" : 29196,
            "type" : "VEC2"
        },
        {
            "bufferView" : 3,
            "componentType" : 5123,
            "count" : 45504,
            "type" : "SCALAR"
        },
        {
            "bufferView" : 4,
            "componentType" : 5126,
            "count" : 19995,
            "max" : [
                6.17530632019043,
                7.419024467468262,
                18.790115356445312
            ],
            "min" : [
                -6.864224910736084,
                -8.10521411895752,
                0
            ],
            "type" : "VEC3"
        },
        {
            "bufferView" : 5,
            "componentType" : 5126,
            "count" : 19995,
            "type" : "VEC3"
        },
        {
            "bufferView" : 6,
            "componentType" : 5126,
            "count" : 19995,
            "type" : "VEC2"
        },
        {
            "bufferView" : 7,
            "componentType" : 5123,
            "count" : 81552,
            "type" : "SCALAR"
        }
    ],
    "bufferViews" : [
        {
            "buffer" : 0,
            "byteLength" : 350352,
            "byteOffset" : 0
        },
        {
            "buffer" : 0,
            "byteLength" : 350352,
            "byteOffset" : 350352
        },
        {
            "buffer" : 0,
            "byteLength" : 233568,
            "byteOffset" : 700704
        },
        {
            "buffer" : 0,
            "byteLength" : 91008,
            "byteOffset" : 934272
        },
        {
            "buffer" : 0,
            "byteLength" : 239940,
            "byteOffset" : 1025280
        },
        {
            "buffer" : 0,
            "byteLength" : 239940,
            "byteOffset" : 1265220
        },
        {
            "buffer" : 0,
            "byteLength" : 159960,
            "byteOffset" : 1505160
        },
        {
            "buffer" : 0,
            "byteLength" : 163104,
            "byteOffset" : 1665120
        }
    ],
    "buffers" : [
        {
            "byteLength" : 1828224,
            "uri" : "willow.bin"
        }
    ]
}
